…
What this is doing is the equivalent to `dat_list[[1]][c("name", "gender", "culture")], dat_list[[2]][c("name", "gender", "culture")]` and so on. The `_dfr` piece tells map to convert the result to a data.frame by row.

(Without `_dfr` the `map` fn returns a list of lists, each containing three named items.
`_dfr` flattens it all into a data frame, with one row for each of the subordinate/nested lists.
The list-item selector elements (char strings) each become a column heading in the dataframe.)

```{r}
# The `[` is the function here -- essentially telling it to apply [] to each list
# and the name, gender and culter are the argument passed to []

map_dfr(dat_list,`[`, c("name", "gender", "culture"))
## # A tibble: 30 x 3
##   name              gender culture 
##   <chr>             <chr>  <chr>   
## 1 Theon Greyjoy     Male   Ironborn
## 2 Tyrion Lannister  Male   ""      
## 3 Victarion Greyjoy Male   Ironborn
## 4 Will              Male   ""      
## 5 Areo Hotah        Male   Norvoshi
## 6 Chett             Male   ""      
## # ... with 24 more rows
…
In order to include these items in our dataframe we’ll need to create a list-column using map.

```{r}
dat_df <- dat_list %>% { # braces allow the piped result to be used for 2ndary purposes (not as the first argument, and possibly multiple times)
  tibble( # tibble of multiple columns, some char vecs, others for multi-element fields are list columns 
    name = map_chr(., "name"),
    gender = map_chr(., "gender"),
    culture = map_chr(., "culture"),
    aliases = map(., "aliases"),
    allegiances = map(., "allegiances")
  )}

dat_df
## # A tibble: 30 x 5
##   name              gender culture  aliases    allegiances
##   <chr>             <chr>  <chr>    <list>     <list>     
## 1 Theon Greyjoy     Male   Ironborn <chr [4]>  <chr [1]>  
## 2 Tyrion Lannister  Male   ""       <chr [11]> <chr [1]>  
## 3 Victarion Greyjoy Male   Ironborn <chr [1]>  <chr [1]>  
## 4 Will              Male   ""       <chr [1]>  <NULL>     
## 5 Areo Hotah        Male   Norvoshi <chr [1]>  <chr [1]>  
## # ... with 25 more rows
…
### The `pmap` function

The pmap function can be used on an arbitrary number of inputs and is great for doing row-wise iterations on a dataframe.

Note: this seems quite distinct from `map`, which applies a single-arg function across the items of a list, hence would apply the same function across some-or-all columns of a dataframe.

#### Example 1: Apply a function to each row
Using the pmap function we can apply a row-wise operation to our (dataframe-format) dataset. As a reminder here’s what our dat_m object looks like:

```{r}
dat_df

## # A tibble: 30 x 5
##   name              gender culture  aliases    allegiances
##   <chr>             <chr>  <chr>    <list>     <list>     
## 1 Theon Greyjoy     Male   Ironborn <chr [4]>  <chr [1]>  
## 2 Tyrion Lannister  Male   ""       <chr [11]> <chr [1]>  
## 3 Victarion Greyjoy Male   Ironborn <chr [1]>  <chr [1]>  
## 4 Will              Male   ""       <chr [1]>  <NULL>     
## 5 Areo Hotah        Male   Norvoshi <chr [1]>  <chr [1]>  
## # ... with 25 more rows
```
…
